{
  "routes": [
    {
      "method": "GET",
      "path": "/academics",
      "handler": "academics.find",
      "config": {
        "policies": []
      }
    },
    {
      "method": "GET",
      "path": "/academics/count",
      "handler": "academics.count",
      "config": {
        "policies": []
      }
    },
    {
      "method": "GET",
      "path": "/academics/:id",
      "handler": "academics.findOne",
      "config": {
        "policies": []
      }
    },
    {
      "method": "POST",
      "path": "/academics",
      "handler": "academics.create",
      "config": {
        "policies": []
      }
    },
    {
      "method": "PUT",
      "path": "/academics/:id",
      "handler": "academics.update",
      "config": {
        "policies": []
      }
    },
    {
      "method": "DELETE",
      "path": "/academics/:id",
      "handler": "academics.delete",
      "config": {
        "policies": []
      }
    }
  ]
}
